<svg width="24" height="24" viewBox="0 0 24 24" fill="none" xmlns="http://www.w3.org/2000/svg">
<path d="M14 6L20 12M20 12L14 18M20 12H5" stroke="white" stroke-width="2" stroke-linecap="round"/>
</svg>
