<svg width="82" height="78" viewBox="0 0 82 78" fill="none" xmlns="http://www.w3.org/2000/svg">
<g id="Circle_Carret_Left">
<path id="Ellipse 1" d="M57.3785 38.8291C57.3785 47.4715 50.1102 54.5079 41.106 54.5079C32.1018 54.5079 24.8335 47.4715 24.8335 38.8291C24.8335 30.1868 32.1018 23.1503 41.106 23.1503C50.1102 23.1503 57.3785 30.1868 57.3785 38.8291Z" stroke="white"/>
<path id="Vector" d="M44.4605 45.3007L37.7515 38.8291L44.4605 32.3576" stroke="white"/>
</g>
</svg>
