<svg width="40" height="41" viewBox="0 0 40 41" fill="none" xmlns="http://www.w3.org/2000/svg">
<g id="GIft_fill">
<path id="Subtract" fill-rule="evenodd" clip-rule="evenodd" d="M19 13.8333H7C6.05719 13.8333 5.58579 13.8333 5.29289 14.1262C5 14.4191 5 14.8905 5 15.8333V20.1666C5 21.1095 5 21.5809 5.29289 21.8738C5.58579 22.1666 6.05719 22.1666 7 22.1666H10V22.8333H19V13.8333ZM10 24.8333V33.5C10 34.4428 10 34.9142 10.2929 35.2071C10.5858 35.5 11.0572 35.5 12 35.5H19V24.8333H10ZM21 35.5H28C28.9428 35.5 29.4142 35.5 29.7071 35.2071C30 34.9142 30 34.4428 30 33.5V24.8333H21V35.5ZM30 22.8333V22.1666H33C33.9428 22.1666 34.4142 22.1666 34.7071 21.8738C35 21.5809 35 21.1095 35 20.1666V15.8333C35 14.8905 35 14.4191 34.7071 14.1262C34.4142 13.8333 33.9428 13.8333 33 13.8333H21V22.8333H30Z" fill="white"/>
<path id="Vector 209" d="M31.6665 9.05846V6.60816C31.6665 5.24305 30.3291 4.27911 29.0341 4.7108L26.63 5.51215C25.0099 6.05217 23.5379 6.96197 22.3303 8.16949L19.9998 10.5V12.1666H26.3419C26.5569 12.1666 26.7705 12.132 26.9744 12.064L30.299 10.9558C31.1156 10.6836 31.6665 9.91932 31.6665 9.05846Z" fill="white"/>
<path id="Vector 210" d="M8.3335 9.05846V6.60816C8.3335 5.24305 9.67089 4.27911 10.9659 4.7108L13.37 5.51215C14.9901 6.05217 16.4621 6.96197 17.6697 8.16949L20.0002 10.5V12.1666H13.6581C13.4431 12.1666 13.2295 12.132 13.0256 12.064L9.70104 10.9558C8.88436 10.6836 8.3335 9.91932 8.3335 9.05846Z" fill="white"/>
</g>
</svg>
